2016-09-14 00:05:23|
2016-09-14 10:35:07|bcedd292b4cf4632992f7e8ce45b8a58|web:41522264|null|null|2016-09-14 10:26:35|2016-09-14 10:35:07|null|1|null|null|null
2016-09-14 11:02:07|d1ae7cacc6cc4ae7b90a3b17d143a52f|web:41522264|null|null|2016-09-14 10:55:59|2016-09-14 11:02:07|null|1|null|null|null
2016-10-14 16:18:59|
2016-10-14 16:19:23|
2016-10-14 20:12:54|edb48f3f40fb4300b41939ed149cc8b7|kbase:null_1476446838809|null|null|2016-10-14 20:07:18|2016-10-14 20:12:54|null|1|null|null|null
2016-10-14 20:12:54|cd3f63ff9921455589fa06d52da44312|kbase:null_1476446842069|null|null|2016-10-14 20:07:22|2016-10-14 20:12:54|null|1|null|null|null
